Trang Quach - TidyTuesday I
…
Only 8 pizza brands has more than 9 restaurants in US.

Merge 3 datasets. This data is used for mapping

location1 <- location %>% 
  left_join(number_state, by="name") %>%
  left_join(namesum, by="name") %>%
  mutate(price_max = if_else(price_range_max %in% c(20,25), "20-25", "40"))

Number of restaurants in a specific state

location1 %>%
  count(province, sort=TRUE)

## # A tibble: 42 x 2
##    province     n
##    <chr>    <int>
##  1 NY         424
##  2 CA         255
##  3 PA         179
##  4 FL         163
##  5 TX         139
##  6 IL         125
##  7 OH          97
##  8 MI          94
##  9 AZ          70
## 10 NC          69
## # ... with 32 more rows
…
